{
	"id": "3dfebfe2-dfd5-4b0f-8c87-c26c9bf1904e",
	"name": "Environment",
	"values": [
		{
			"key": "baseURL",
			"value": "https://ancient-wildwood-79061.herokuapp.com",
			"type": "default",
			"enabled": true
		},
		{
			"key": "category_id",
			"value": "",
			"type": "any",
			"enabled": true
		},
		{
			"key": "username",
			"value": "",
			"type": "any",
			"enabled": true
		},
		{
			"key": "password",
			"value": "",
			"type": "any",
			"enabled": true
		},
		{
			"key": "userId",
			"value": "",
			"type": "any",
			"enabled": true
		},
		{
			"key": "my_cookie",
			"value": "",
			"type": "any",
			"enabled": true
		},
		{
			"key": "firstName",
			"value": "",
			"type": "any",
			"enabled": true
		},
		{
			"key": "skill",
			"value": "",
			"type": "any",
			"enabled": true
		},
		{
			"key": "skillId",
			"value": "",
			"type": "any",
			"enabled": true
		},
		{
			"key": "categoryId",
			"value": "",
			"type": "any",
			"enabled": true
		},
		{
			"key": "categoryName",
			"value": "",
			"type": "any",
			"enabled": true
		},
		{
			"key": "postId",
			"value": "",
			"type": "any",
			"enabled": true
		},
		{
			"key": "postContent",
			"value": "",
			"type": "any",
			"enabled": true
		},
		{
			"key": "postLiked",
			"value": "",
			"type": "any",
			"enabled": true
		},
		{
			"key": "commentId",
			"value": "",
			"type": "any",
			"enabled": true
		},
		{
			"key": "contentCommentCreated",
			"value": "",
			"type": "default",
			"enabled": true
		},
		{
			"key": "contentCommentEdited",
			"value": "",
			"type": "default",
			"enabled": true
		},
		{
			"key": "userRequestRecipientUsername",
			"value": "",
			"type": "any",
			"enabled": true
		},
		{
			"key": "userRequestRecipientPassword",
			"value": "",
			"type": "any",
			"enabled": true
		},
		{
			"key": "userEmail",
			"value": "",
			"type": "any",
			"enabled": true
		},
		{
			"key": "userCategoryId",
			"value": "",
			"type": "any",
			"enabled": true
		},
		{
			"key": "userCategoryName",
			"value": "",
			"type": "any",
			"enabled": true
		},
		{
			"key": "userRequestRecipientId",
			"value": "",
			"type": "any",
			"enabled": true
		},
		{
			"key": "requestId",
			"value": "",
			"type": "any",
			"enabled": true
		}
	],
	"_postman_variable_scope": "environment",
	"_postman_exported_at": "2022-10-11T13:02:02.389Z",
	"_postman_exported_using": "Postman/9.31.13"
}